[
{
  "birthday": "01011975",
  "gender": "M",
  "name": "test user3",
  "natid": "1011123456",
  "salary": "100",
  "tax": "20"
},
{
  "birthday": "01011960",
  "gender": "M",
  "name": "test user4",
  "natid": "1012123456",
  "salary": "100",
  "tax": "25"
}
]